,date,city,rent,product
0,2021-01-01,Ordu,11,1910
1,2021-01-02,Hakkari,15,1225
2,2021-01-03,Muğla,14,1042
3,2021-01-04,Bayburt,2,1419
4,2021-01-05,Kırşehir,10,1862
5,2021-01-06,Kars,9,1262
6,2021-01-07,Sakarya,4,1147
7,2021-01-08,Mardin,3,1181
8,2021-01-09,Niğde,16,1898
9,2021-01-10,Bolu,12,1419
10,2021-01-11,Tokat,1,1478
11,2021-01-12,Tunceli,13,1327
12,2021-01-13,Isparta,5,1708
13,2021-01-14,İstanbul,1,1223
14,2021-01-15,Kilis,6,1311
15,2021-01-16,Hakkari,1,1120
16,2021-01-17,Afyon,1,1074
17,2021-01-18,Yozgat,7,1893
18,2021-01-19,Kırıkkale,3,1582
19,2021-01-20,Aksaray,14,1853
20,2021-01-21,Isparta,8,1051
21,2021-01-22,Ağrı,4,1406
22,2021-01-23,Karabük,2,1274
23,2021-01-24,Muğla,3,1636
24,2021-01-25,Bartın,12,1446
25,2021-01-26,Ağrı,10,1544
26,2021-01-27,Eskişehir,6,1292
27,2021-01-28,Gaziantep,14,1119
28,2021-01-29,Iğdır,14,1214
29,2021-01-30,Bolu,14,1057
30,2021-01-31,Muğla,5,1030
31,2021-02-01,Diyarbakır,10,1830
32,2021-02-02,Sivas,11,1384
33,2021-02-03,Edirne,11,1777
34,2021-02-04,Gaziantep,6,1412
35,2021-02-05,Şanlıurfa,9,1511
36,2021-02-06,İzmir,2,1677
37,2021-02-07,Bitlis,16,1954
38,2021-02-08,Tekirdağ,6,1308
39,2021-02-09,Uşak,15,1382
40,2021-02-10,Yalova,5,1494
41,2021-02-11,Şırnak,14,1573
42,2021-02-12,Muğla,8,1379
43,2021-02-13,Yalova,2,1252
44,2021-02-14,Düzce,12,1209
45,2021-02-15,Eskişehir,16,1443
46,2021-02-16,Rize,12,1805
47,2021-02-17,Hakkari,13,1842
48,2021-02-18,Hatay,2,1765
49,2021-02-19,Elazığ,15,1692
50,2021-02-20,Rize,4,1363
51,2021-02-21,Rize,16,1894
52,2021-02-22,Kırşehir,6,1493
53,2021-02-23,Osmaniye,13,1672
54,2021-02-24,Artvin,16,1684
55,2021-02-25,Batman,15,1599
56,2021-02-26,Bilecik,11,1095
57,2021-02-27,Konya,6,1648
58,2021-02-28,Adıyaman,4,1756
59,2021-03-01,Edirne,6,1809
60,2021-03-02,Balıkesir,9,1726
61,2021-03-03,İzmir,15,1652
62,2021-03-04,Diyarbakır,14,1496
63,2021-03-05,Aydın,1,1494
64,2021-03-06,Bilecik,12,1512
65,2021-03-07,Uşak,14,1758
66,2021-03-08,Iğdır,1,1221
67,2021-03-09,Ardahan,3,1521
68,2021-03-10,Şırnak,6,1891
69,2021-03-11,Karaman,3,1431
70,2021-03-12,Kastamonu,15,1649
71,2021-03-13,Karaman,13,1207
72,2021-03-14,Kahramanmaraş,4,1227
73,2021-03-15,Tokat,3,1787
74,2021-03-16,Kilis,10,1020
75,2021-03-17,Konya,10,1115
76,2021-03-18,Gaziantep,16,1163
77,2021-03-19,Erzurum,4,1901
78,2021-03-20,Kahramanmaraş,9,1673
79,2021-03-21,Samsun,17,1088
80,2021-03-22,Karabük,4,1527
81,2021-03-23,Bingöl,2,1249
82,2021-03-24,Trabzon,7,1610
83,2021-03-25,Sinop,2,1825
84,2021-03-26,Tekirdağ,16,1082
85,2021-03-27,Aydın,2,1154
86,2021-03-28,Adana,3,1842
87,2021-03-29,Çanakkale,9,1730
88,2021-03-30,Sinop,8,1007
89,2021-03-31,Edirne,12,1588
90,2021-04-01,İçel (Mersin),13,1744
91,2021-04-02,İstanbul,16,1822
92,2021-04-03,Niğde,11,1977
93,2021-04-04,Muş,7,1028
94,2021-04-05,Nevşehir,15,1085
95,2021-04-06,Adana,7,1582
96,2021-04-07,Erzurum,11,1412
97,2021-04-08,Eskişehir,13,1663
98,2021-04-09,Mardin,4,1056
99,2021-04-10,Batman,10,1836
100,2021-04-11,Elazığ,4,1248
101,2021-04-12,Sivas,4,1964
102,2021-04-13,Karaman,17,1376
103,2021-04-14,Muş,8,1923
104,2021-04-15,Kilis,4,1367
105,2021-04-16,Kars,6,1481
106,2021-04-17,Ordu,9,1749
107,2021-04-18,Trabzon,3,1501
108,2021-04-19,Muğla,3,1927
109,2021-04-20,Trabzon,7,1492
110,2021-04-21,Çorum,14,1599
111,2021-04-22,Çorum,14,1714
112,2021-04-23,Balıkesir,8,1961
113,2021-04-24,Gaziantep,12,1253
114,2021-04-25,Kahramanmaraş,1,1080
115,2021-04-26,Muğla,3,1421
116,2021-04-27,Artvin,5,1450
117,2021-04-28,Çorum,1,1806
118,2021-04-29,Tekirdağ,16,1962
119,2021-04-30,Şırnak,16,1892
120,2021-05-01,Kahramanmaraş,16,1907
121,2021-05-02,Çorum,8,1802
122,2021-05-03,Nevşehir,17,1187
123,2021-05-04,Kırklareli,5,1486
124,2021-05-05,Erzincan,11,1309
125,2021-05-06,Kocaeli,9,1102
126,2021-05-07,Gaziantep,9,1648
127,2021-05-08,Aydın,14,1819
128,2021-05-09,Ardahan,6,1569
129,2021-05-10,Aydın,2,1891
130,2021-05-11,Elazığ,16,1958
131,2021-05-12,Muş,12,1365
132,2021-05-13,Burdur,17,1738
133,2021-05-14,Mardin,9,1179
134,2021-05-15,Yozgat,11,1380
135,2021-05-16,Antalya,9,1959
136,2021-05-17,Kırşehir,12,1777
137,2021-05-18,Kocaeli,12,1744
138,2021-05-19,Bayburt,14,1522
139,2021-05-20,Bitlis,2,1453
140,2021-05-21,Afyon,17,1732
141,2021-05-22,Kütahya,10,1450
142,2021-05-23,Tunceli,6,1841
143,2021-05-24,Bilecik,1,1920
144,2021-05-25,Bitlis,4,1343
145,2021-05-26,İzmir,7,1344
146,2021-05-27,İçel (Mersin),3,1036
147,2021-05-28,Yozgat,9,1099
148,2021-05-29,Nevşehir,16,1930
149,2021-05-30,Düzce,16,1906
150,2021-05-31,Sivas,10,1596
151,2021-06-01,Elazığ,9,1509
152,2021-06-02,Malatya,14,1981
153,2021-06-03,İçel (Mersin),13,1595
154,2021-06-04,Kastamonu,1,1765
155,2021-06-05,Bursa,6,1591
156,2021-06-06,Tekirdağ,15,1482
157,2021-06-07,Zonguldak,12,1423
158,2021-06-08,Iğdır,6,1792
159,2021-06-09,Eskişehir,7,1661
160,2021-06-10,Karaman,6,1742
161,2021-06-11,Balıkesir,8,1643
162,2021-06-12,Edirne,10,1034
163,2021-06-13,Rize,11,1695
164,2021-06-14,Rize,6,1407
165,2021-06-15,Kastamonu,11,1978
166,2021-06-16,İzmir,10,1257
167,2021-06-17,Kilis,15,1259
168,2021-06-18,Amasya,8,1222
169,2021-06-19,Aydın,14,1383
170,2021-06-20,Düzce,15,1206
171,2021-06-21,Ağrı,4,1802
172,2021-06-22,Isparta,15,1423
173,2021-06-23,Yozgat,2,1026
174,2021-06-24,Malatya,6,1773
175,2021-06-25,Giresun,3,1743
176,2021-06-26,Bitlis,6,1601
177,2021-06-27,Aydın,6,1630
178,2021-06-28,Ankara,1,1844
179,2021-06-29,Kars,2,1052
180,2021-06-30,Tekirdağ,13,1244
181,2021-07-01,Sakarya,13,1851
182,2021-07-02,İstanbul,8,1667
183,2021-07-03,Mardin,7,1140
184,2021-07-04,Kırıkkale,12,1647
185,2021-07-05,Hakkari,16,1418
186,2021-07-06,Iğdır,17,1844
187,2021-07-07,Kırıkkale,12,1282
188,2021-07-08,Tekirdağ,2,1241
189,2021-07-09,Edirne,1,1189
190,2021-07-10,Denizli,6,1898
191,2021-07-11,Afyon,3,1632
192,2021-07-12,Osmaniye,5,1951
193,2021-07-13,Çanakkale,6,1395
194,2021-07-14,Yalova,10,1375
195,2021-07-15,Samsun,12,1864
196,2021-07-16,Siirt,15,1459
197,2021-07-17,Kırklareli,1,1019
198,2021-07-18,Aydın,16,1530
199,2021-07-19,Mardin,2,1628
200,2021-07-20,Elazığ,9,1203
201,2021-07-21,Muğla,17,1196
202,2021-07-22,Denizli,3,1566
203,2021-07-23,Ankara,9,1110
204,2021-07-24,Yozgat,5,1770
205,2021-07-25,Yozgat,13,1814
206,2021-07-26,Van,11,1975
207,2021-07-27,Edirne,9,1402
208,2021-07-28,Artvin,10,1074
209,2021-07-29,İzmir,1,1319
210,2021-07-30,Kocaeli,1,1720
211,2021-07-31,Bilecik,12,1260
212,2021-08-01,Bolu,15,1012
213,2021-08-02,Malatya,7,1740
214,2021-08-03,Hakkari,4,1137
215,2021-08-04,Giresun,4,1734
216,2021-08-05,Kars,11,1086
217,2021-08-06,Şırnak,6,1193
218,2021-08-07,Trabzon,16,1237
219,2021-08-08,Yozgat,11,1060
220,2021-08-09,Ordu,5,1732
221,2021-08-10,Ağrı,15,1122
222,2021-08-11,Kars,12,1004
223,2021-08-12,Şırnak,2,1099
224,2021-08-13,Bartın,7,1869
225,2021-08-14,Ankara,10,1656
226,2021-08-15,Bilecik,12,1548
227,2021-08-16,Çanakkale,3,1474
228,2021-08-17,Sivas,6,1969
229,2021-08-18,Gaziantep,17,1200
230,2021-08-19,Bitlis,14,1612
231,2021-08-20,Konya,5,1586
232,2021-08-21,Adana,17,1737
233,2021-08-22,Balıkesir,1,1713
234,2021-08-23,Elazığ,3,1145
235,2021-08-24,Mardin,6,1497
236,2021-08-25,Karaman,8,1859
237,2021-08-26,Kayseri,1,1259
238,2021-08-27,Sivas,8,1083
239,2021-08-28,Karabük,5,1546
240,2021-08-29,Nevşehir,12,1379
241,2021-08-30,Nevşehir,12,1265
242,2021-08-31,Muş,13,1487
243,2021-09-01,Sinop,12,1010
244,2021-09-02,Sakarya,8,1764
245,2021-09-03,Yozgat,11,1118
246,2021-09-04,Erzurum,15,1892
247,2021-09-05,Eskişehir,7,1670
248,2021-09-06,İçel (Mersin),7,1589
249,2021-09-07,Uşak,9,1704
250,2021-09-08,Malatya,15,1318
251,2021-09-09,Ardahan,11,1149
252,2021-09-10,Edirne,11,1200
253,2021-09-11,Iğdır,2,1778
254,2021-09-12,Edirne,3,1388
255,2021-09-13,Karabük,15,1172
256,2021-09-14,Çorum,5,1360
257,2021-09-15,Tunceli,11,1166
258,2021-09-16,Siirt,5,1816
259,2021-09-17,Tokat,5,1097
260,2021-09-18,Sakarya,8,1655
261,2021-09-19,Çanakkale,17,1808
262,2021-09-20,Muğla,2,1576
263,2021-09-21,Balıkesir,16,1977
264,2021-09-22,Manisa,7,1607
265,2021-09-23,Osmaniye,11,1791
266,2021-09-24,Manisa,13,1836
267,2021-09-25,Bartın,15,1039
268,2021-09-26,Zonguldak,8,1938
269,2021-09-27,Çorum,11,1179
270,2021-09-28,Yozgat,14,1900
271,2021-09-29,Kahramanmaraş,2,1247
272,2021-09-30,Van,10,1369
273,2021-10-01,Aksaray,5,1257
274,2021-10-02,Erzincan,16,1971
275,2021-10-03,Bartın,4,1588
276,2021-10-04,Elazığ,2,1401
277,2021-10-05,Isparta,8,1609
278,2021-10-06,Kilis,2,1163
279,2021-10-07,Bursa,8,1756
280,2021-10-08,Balıkesir,14,1475
281,2021-10-09,Zonguldak,5,1173
282,2021-10-10,Bingöl,11,1359
283,2021-10-11,Eskişehir,8,1910
284,2021-10-12,Ardahan,16,1161
285,2021-10-13,Tekirdağ,8,1950
286,2021-10-14,Iğdır,3,1127
287,2021-10-15,Edirne,3,1314
288,2021-10-16,Yalova,2,1170
289,2021-10-17,Ankara,15,1171
290,2021-10-18,Isparta,8,1494
291,2021-10-19,Adana,10,1008
292,2021-10-20,Bartın,8,1224
293,2021-10-21,Afyon,7,1146
294,2021-10-22,Uşak,15,1716
295,2021-10-23,Ankara,11,1613
296,2021-10-24,İstanbul,16,1478
297,2021-10-25,Aksaray,12,1568
298,2021-10-26,Çorum,14,1519
299,2021-10-27,Iğdır,5,1852
300,2021-10-28,Mardin,8,1922
301,2021-10-29,Siirt,12,1816
302,2021-10-30,Erzurum,2,1139
303,2021-10-31,Ardahan,5,1795
304,2021-11-01,Denizli,13,1703
305,2021-11-02,Erzincan,8,1211
306,2021-11-03,Mardin,15,1392
307,2021-11-04,Batman,11,1769
308,2021-11-05,Ordu,15,1298
309,2021-11-06,Bartın,16,1489
310,2021-11-07,Samsun,15,1227
311,2021-11-08,Kırşehir,4,1899
312,2021-11-09,Bilecik,14,1081
313,2021-11-10,Eskişehir,14,1104
314,2021-11-11,Elazığ,15,1518
315,2021-11-12,Bilecik,9,1675
316,2021-11-13,Çanakkale,6,1781
317,2021-11-14,Kırşehir,10,1533
318,2021-11-15,Çorum,13,1692
319,2021-11-16,Şırnak,17,1614
320,2021-11-17,Bolu,15,1567
321,2021-11-18,Artvin,15,1488
322,2021-11-19,Kırklareli,4,1457
323,2021-11-20,Yalova,12,1104
324,2021-11-21,Tokat,15,1164
325,2021-11-22,Şırnak,6,1087
326,2021-11-23,Hakkari,15,1722
327,2021-11-24,Artvin,8,1974
328,2021-11-25,Elazığ,17,1591
329,2021-11-26,Van,8,1187
330,2021-11-27,Elazığ,10,1577
331,2021-11-28,Adıyaman,5,1072
332,2021-11-29,Karabük,6,1400
333,2021-11-30,Kayseri,4,1923
334,2021-12-01,Tokat,3,1628
335,2021-12-02,Mardin,2,1807
336,2021-12-03,İstanbul,13,1133
337,2021-12-04,Artvin,1,1104
338,2021-12-05,Gümüşhane,12,1733
339,2021-12-06,Adana,14,1330
340,2021-12-07,Bursa,17,1083
341,2021-12-08,Hakkari,3,1540
342,2021-12-09,Sivas,7,1056
343,2021-12-10,Zonguldak,10,1253
344,2021-12-11,Ağrı,9,1346
345,2021-12-12,Samsun,6,1261
346,2021-12-13,Burdur,3,1711
347,2021-12-14,Çorum,3,1748
348,2021-12-15,Kars,16,1106
349,2021-12-16,Gümüşhane,3,1488
350,2021-12-17,Kocaeli,10,1390
351,2021-12-18,Balıkesir,15,1780
352,2021-12-19,Kilis,4,1377
353,2021-12-20,Artvin,12,1171
354,2021-12-21,Bursa,6,1257
355,2021-12-22,Van,14,1058
356,2021-12-23,Elazığ,9,1486
357,2021-12-24,Kırklareli,11,1102
358,2021-12-25,Diyarbakır,9,1945
359,2021-12-26,Eskişehir,14,1787
360,2021-12-27,Ordu,16,1618
361,2021-12-28,Adıyaman,8,1817
362,2021-12-29,Samsun,12,1059
363,2021-12-30,Uşak,5,1533
